*NODE, NSET=NALL
  1, 0.00000000e+00, 0.00000000e+00, 0.0
  2, 0.00000000e+00, 2.50000000e-01, 0.0
  3, 0.00000000e+00, 5.00000000e-01, 0.0
  4, 0.00000000e+00, 7.50000000e-01, 0.0
  5, 0.00000000e+00, 1.00000000e+00, 0.0
  6, 2.67847561e-01, 4.34264584e-01, 0.0
  7, 2.82727300e-01, 6.96458980e-01, 0.0
  8, 3.12500000e-01, 0.00000000e+00, 0.0
  9, 3.12500000e-01, 1.00000000e+00, 0.0
 10, 4.35358818e-01, 2.42148116e-01, 0.0
 11, 5.40848506e-01, 7.73640311e-01, 0.0
 12, 5.91925547e-01, 5.08489632e-01, 0.0
 13, 6.25000000e-01, 0.00000000e+00, 0.0
 14, 6.25000000e-01, 1.00000000e+00, 0.0
 15, 7.48524801e-01, 2.53050600e-01, 0.0
 16, 8.33903129e-01, 7.36871811e-01, 0.0
 17, 9.37500000e-01, 0.00000000e+00, 0.0
 18, 9.37500000e-01, 1.00000000e+00, 0.0
 19, 9.38973712e-01, 4.77858821e-01, 0.0
 20, 1.05735332e+00, 2.36279095e-01, 0.0
 21, 1.17008011e+00, 6.77967354e-01, 0.0
 22, 1.25000000e+00, 0.00000000e+00, 0.0
 23, 1.25000000e+00, 1.00000000e+00, 0.0
 24, 1.32871397e+00, 2.94573170e-01, 0.0
 25, 1.46373672e+00, 7.65839377e-01, 0.0
 26, 1.47075250e+00, 5.14513145e-01, 0.0
 27, 1.56250000e+00, 0.00000000e+00, 0.0
 28, 1.56250000e+00, 1.00000000e+00, 0.0
 29, 1.66656797e+00, 2.85348333e-01, 0.0
 30, 1.76363334e+00, 6.15431086e-01, 0.0
 31, 1.87500000e+00, 0.00000000e+00, 0.0
 32, 1.87500000e+00, 1.00000000e+00, 0.0
 33, 1.96551287e+00, 2.85799054e-01, 0.0
 34, 2.00754050e+00, 7.71888118e-01, 0.0
 35, 2.11895144e+00, 5.30246799e-01, 0.0
 36, 2.18750000e+00, 0.00000000e+00, 0.0
 37, 2.18750000e+00, 1.00000000e+00, 0.0
 38, 2.26993090e+00, 2.70229468e-01, 0.0
 39, 2.31448743e+00, 7.66449044e-01, 0.0
 40, 2.44464896e+00, 5.36586214e-01, 0.0
 41, 2.50000000e+00, 0.00000000e+00, 0.0
 42, 2.50000000e+00, 1.00000000e+00, 0.0
 43, 2.53125454e+00, 3.03263395e-01, 0.0
 44, 2.63235773e+00, 7.54802441e-01, 0.0
 45, 2.74074032e+00, 2.22648626e-01, 0.0
 46, 2.78744958e+00, 4.98076349e-01, 0.0
 47, 2.81250000e+00, 0.00000000e+00, 0.0
 48, 2.81250000e+00, 1.00000000e+00, 0.0
 49, 2.92984630e+00, 7.45009673e-01, 0.0
 50, 3.00522426e+00, 2.63727773e-01, 0.0
 51, 3.12500000e+00, 0.00000000e+00, 0.0
 52, 3.12500000e+00, 1.00000000e+00, 0.0
 53, 3.13927783e+00, 5.14621977e-01, 0.0
 54, 3.18888988e+00, 7.92784224e-01, 0.0
 55, 3.30614674e+00, 2.54173767e-01, 0.0
 56, 3.38559426e+00, 7.08811151e-01, 0.0
 57, 3.43750000e+00, 0.00000000e+00, 0.0
 58, 3.43750000e+00, 1.00000000e+00, 0.0
 59, 3.47604964e+00, 4.78975673e-01, 0.0
 60, 3.63060362e+00, 2.44049775e-01, 0.0
 61, 3.63769613e+00, 7.47255325e-01, 0.0
 62, 3.75000000e+00, 0.00000000e+00, 0.0
 63, 3.75000000e+00, 1.00000000e+00, 0.0
 64, 3.78832176e+00, 4.91014806e-01, 0.0
 65, 3.92689750e+00, 7.45860437e-01, 0.0
 66, 3.95855122e+00, 2.45763305e-01, 0.0
 67, 4.06250000e+00, 0.00000000e+00, 0.0
 68, 4.06250000e+00, 1.00000000e+00, 0.0
 69, 4.10090446e+00, 4.86734396e-01, 0.0
 70, 4.21930881e+00, 7.62930517e-01, 0.0
 71, 4.36920222e+00, 2.65018481e-01, 0.0
 72, 4.37410293e+00, 5.36047146e-01, 0.0
 73, 4.37500000e+00, 0.00000000e+00, 0.0
 74, 4.37500000e+00, 1.00000000e+00, 0.0
 75, 4.53157912e+00, 7.63705727e-01, 0.0
 76, 4.64968376e+00, 4.92501803e-01, 0.0
 77, 4.68750000e+00, 0.00000000e+00, 0.0
 78, 4.68750000e+00, 1.00000000e+00, 0.0
 79, 4.77779484e+00, 2.49336834e-01, 0.0
 80, 4.83212191e+00, 7.47867404e-01, 0.0
 81, 4.96930019e+00, 4.99455465e-01, 0.0
 82, 5.00000000e+00, 0.00000000e+00, 0.0
 83, 5.00000000e+00, 1.00000000e+00, 0.0
 84, 5.09370327e+00, 2.55104488e-01, 0.0
 85, 5.14531235e+00, 7.45814043e-01, 0.0
 86, 5.30707927e+00, 4.97788869e-01, 0.0
 87, 5.31250000e+00, 0.00000000e+00, 0.0
 88, 5.31250000e+00, 1.00000000e+00, 0.0
 89, 5.36378697e+00, 2.22953972e-01, 0.0
 90, 5.46273457e+00, 7.55894400e-01, 0.0
 91, 5.57057113e+00, 3.05437762e-01, 0.0
 92, 5.62500000e+00, 0.00000000e+00, 0.0
 93, 5.62500000e+00, 1.00000000e+00, 0.0
 94, 5.64657339e+00, 5.39441781e-01, 0.0
 95, 5.79511570e+00, 7.63722412e-01, 0.0
 96, 5.82582105e+00, 2.62399618e-01, 0.0
 97, 5.93750000e+00, 0.00000000e+00, 0.0
 98, 5.93750000e+00, 1.00000000e+00, 0.0
 99, 5.96526011e+00, 5.12383028e-01, 0.0
100, 6.11163164e+00, 7.52917068e-01, 0.0
101, 6.13014682e+00, 2.56127319e-01, 0.0
102, 6.25000000e+00, 0.00000000e+00, 0.0
103, 6.25000000e+00, 1.00000000e+00, 0.0
104, 6.28752301e+00, 5.03492138e-01, 0.0
105, 6.42094135e+00, 7.52419634e-01, 0.0
106, 6.45646008e+00, 2.59020740e-01, 0.0
107, 6.56250000e+00, 0.00000000e+00, 0.0
108, 6.56250000e+00, 1.00000000e+00, 0.0
109, 6.61575612e+00, 5.16146944e-01, 0.0
110, 6.72372171e+00, 7.67583969e-01, 0.0
111, 6.79860676e+00, 2.91833557e-01, 0.0
112, 6.87500000e+00, 0.00000000e+00, 0.0
113, 6.87500000e+00, 1.00000000e+00, 0.0
114, 6.97198302e+00, 6.25856221e-01, 0.0
115, 7.12688494e+00, 3.39309119e-01, 0.0
116, 7.18750000e+00, 0.00000000e+00, 0.0
117, 7.18750000e+00, 1.00000000e+00, 0.0
118, 7.29043153e+00, 7.05792620e-01, 0.0
119, 7.39496346e+00, 2.33353204e-01, 0.0
120, 7.48916166e+00, 4.89193961e-01, 0.0
121, 7.50000000e+00, 0.00000000e+00, 0.0
122, 7.50000000e+00, 1.00000000e+00, 0.0
123, 7.62944670e+00, 7.48504834e-01, 0.0
124, 7.69191166e+00, 2.58582532e-01, 0.0
125, 7.81250000e+00, 0.00000000e+00, 0.0
126, 7.81250000e+00, 1.00000000e+00, 0.0
127, 7.81643576e+00, 5.15312321e-01, 0.0
128, 7.96394966e+00, 7.55998905e-01, 0.0
129, 7.99257484e+00, 2.56562107e-01, 0.0
130, 8.12500000e+00, 0.00000000e+00, 0.0
131, 8.12500000e+00, 1.00000000e+00, 0.0
132, 8.13587630e+00, 5.05719008e-01, 0.0
133, 8.28487478e+00, 7.50106954e-01, 0.0
134, 8.30483300e+00, 2.53961780e-01, 0.0
135, 8.43750000e+00, 0.00000000e+00, 0.0
136, 8.43750000e+00, 1.00000000e+00, 0.0
137, 8.45736213e+00, 5.02568393e-01, 0.0
138, 8.60088047e+00, 7.50245837e-01, 0.0
139, 8.62442585e+00, 2.54280628e-01, 0.0
140, 8.75000000e+00, 0.00000000e+00, 0.0
141, 8.75000000e+00, 1.00000000e+00, 0.0
142, 8.78045565e+00, 5.02805232e-01, 0.0
143, 8.91077050e+00, 7.52413545e-01, 0.0
144, 8.95385876e+00, 2.58789359e-01, 0.0
145, 9.06250000e+00, 0.00000000e+00, 0.0
146, 9.06250000e+00, 1.00000000e+00, 0.0
147, 9.10696361e+00, 5.14357525e-01, 0.0
148, 9.20841138e+00, 7.72637229e-01, 0.0
149, 9.31292436e+00, 3.01228083e-01, 0.0
150, 9.37500000e+00, 0.00000000e+00, 0.0
151, 9.37500000e+00, 1.00000000e+00, 0.0
152, 9.42960014e+00, 6.11443952e-01, 0.0
153, 9.60821676e+00, 2.25287008e-01, 0.0
154, 9.68750000e+00, 0.00000000e+00, 0.0
155, 9.68750000e+00, 1.00000000e+00, 0.0
156, 9.70069522e+00, 4.56530019e-01, 0.0
157, 9.71703452e+00, 7.42217124e-01, 0.0
158, 1.00000000e+01, 0.00000000e+00, 0.0
159, 1.00000000e+01, 2.50000000e-01, 0.0
160, 1.00000000e+01, 5.00000000e-01, 0.0
161, 1.00000000e+01, 7.50000000e-01, 0.0
162, 1.00000000e+01, 1.00000000e+00, 0.0
*ELEMENT, TYPE=CPE3, ELSET=BEAM
  1,  16,  11,  12
  2,  12,  11,   7
  3,  21,  16,  19
  4,  19,  16,  12
  5,  30,  34,  32
  6,  76,  79,  81
  7,  52,  54,  58
  8,  81,  79,  84
  9,  84,  79,  82
 10,  18,  16,  21
 11,   3,   7,   4
 12,   6,   7,   3
 13,   3,   2,   6
 14,   6,   2,  10
 15,   6,  10,  12
 16,  12,   7,   6
 17,  32,  34,  37
 18,  34,  30,  35
 19,  49,  54,  52
 20,  63,  58,  61
 21,  61,  58,  56
 22,  56,  58,  54
 23,  81,  84,  86
 24,  91,  94,  86
 25,  87,  84,  82
 26,  91,  92,  96
 27,  96,  94,  91
 28, 116, 121, 119
 29, 109, 104, 106
 30, 101, 102, 106
 31, 106, 104, 101
 32, 115, 116, 119
 33, 112, 116, 115
 34, 109, 114, 110
 35,  80,  76,  81
 36,  94,  96,  99
 37, 101, 104,  99
 38,  99,  96, 101
 39,   8,  13,  10
 40,   8,   2,   1
 41,  10,   2,   8
 42,  21,  19,  24
 43,  11,  16,  14
 44,  16,  18,  14
 45,  21,  25,  23
 46,  23,  18,  21
 47,  40,  35,  38
 48,  39,  35,  40
 49,  42,  37,  39
 50,  39,  37,  34
 51,  34,  35,  39
 52,  82,  79,  77
 53,  65,  70,  68
 54,  61,  64,  65
 55,  68,  63,  65
 56,  65,  63,  61
 57,  48,  49,  52
 58,  44,  39,  40
 59,  42,  39,  44
 60,  44,  48,  42
 61,  49,  48,  44
 62, 157, 151, 152
 63, 119, 121, 124
 64, 117, 114, 118
 65, 114, 115, 118
 66,  84,  87,  89
 67,  91,  86,  89
 68,  89,  86,  84
 69,  89,  87,  92
 70,  89,  92,  91
 71,  97,  96,  92
 72,  97, 102, 101
 73, 101,  96,  97
 74, 107, 106, 102
 75, 112, 115, 111
 76, 109, 106, 111
 77, 111, 114, 109
 78, 111, 115, 114
 79, 111, 107, 112
 80, 106, 107, 111
 81,  68,  70,  74
 82,  72,  76,  75
 83,  76,  80,  75
 84,  75,  70,  72
 85,  75,  74,  70
 86,  13,  17,  15
 87,  15,  19,  12
 88,  12,  10,  15
 89,  10,  13,  15
 90,  30,  25,  26
 91,  26,  25,  21
 92,  21,  24,  26
 93,  27,  24,  22
 94,  20,  17,  22
 95,  22,  24,  20
 96,  20,  24,  19
 97,  19,  15,  20
 98,  20,  15,  17
 99,   5,   4,   9
100,   9,   4,   7
101,   9,   7,  11
102,  11,  14,   9
103,  28,  23,  25
104,  28,  30,  32
105,  28,  25,  30
106,  41,  38,  36
107,  33,  31,  36
108,  36,  38,  33
109,  33,  38,  35
110,  33,  35,  30
111,  67,  66,  62
112,  71,  76,  72
113,  71,  67,  73
114,  66,  67,  71
115,  79,  76,  71
116,  73,  77,  71
117,  71,  77,  79
118,  69,  65,  64
119,  64,  66,  69
120,  72,  70,  69
121,  70,  65,  69
122,  69,  71,  72
123,  66,  71,  69
124,  62,  66,  60
125,  60,  66,  64
126,  47,  51,  50
127,  50,  51,  55
128,  53,  56,  54
129,  53,  50,  55
130,  54,  49,  53
131, 162, 157, 161
132, 161, 157, 160
133, 155, 157, 162
134, 151, 157, 155
135, 154, 153, 150
136, 159, 154, 158
137, 153, 154, 159
138, 152, 151, 148
139, 148, 147, 152
140, 150, 153, 149
141, 152, 147, 149
142, 144, 147, 142
143, 144, 149, 147
144, 125, 124, 121
145, 132, 127, 129
146, 127, 124, 129
147, 129, 125, 130
148, 124, 125, 129
149, 119, 124, 120
150, 120, 124, 127
151, 120, 115, 119
152, 120, 118, 115
153, 117, 118, 122
154, 139, 135, 140
155, 142, 137, 139
156, 139, 144, 142
157, 140, 144, 139
158, 138, 137, 142
159, 138, 141, 136
160,  85,  88,  83
161,  81,  86,  85
162,  85,  80,  81
163,  83,  80,  85
164,  93,  88,  90
165,  90,  86,  94
166,  90,  85,  86
167,  88,  85,  90
168, 113, 108, 110
169, 113, 114, 117
170, 113, 110, 114
171, 110, 108, 105
172, 105, 104, 109
173, 109, 110, 105
174,  78,  80,  83
175,  78,  75,  80
176,  74,  75,  78
177,  29,  26,  24
178,  24,  27,  29
179,  30,  26,  29
180,  29,  33,  30
181,  29,  27,  31
182,  31,  33,  29
183,  45,  41,  47
184,  47,  50,  45
185,  55,  51,  57
186,  62,  60,  57
187,  57,  60,  55
188,  59,  60,  64
189,  59,  64,  61
190,  61,  56,  59
191,  55,  60,  59
192,  56,  53,  59
193,  59,  53,  55
194, 156, 159, 160
195, 153, 159, 156
196, 160, 157, 156
197, 156, 157, 152
198, 152, 149, 156
199, 156, 149, 153
200, 146, 148, 151
201, 142, 147, 143
202, 147, 148, 143
203, 148, 146, 143
204, 143, 146, 141
205, 143, 138, 142
206, 141, 138, 143
207, 145, 144, 140
208, 150, 149, 145
209, 149, 144, 145
210, 118, 120, 123
211, 123, 122, 118
212, 123, 120, 127
213, 126, 122, 123
214, 136, 131, 133
215, 132, 137, 133
216, 133, 138, 136
217, 137, 138, 133
218, 128, 127, 132
219, 132, 133, 128
220, 128, 133, 131
221, 128, 131, 126
222, 128, 123, 127
223, 126, 123, 128
224, 134, 139, 137
225, 135, 139, 134
226, 134, 137, 132
227, 132, 129, 134
228, 130, 135, 134
229, 134, 129, 130
230, 103, 105, 108
231,  40,  38,  43
232,  38,  41,  43
233,  41,  45,  43
234,  46,  43,  45
235,  49,  44,  46
236,  46,  44,  40
237,  40,  43,  46
238,  46,  45,  50
239,  46,  53,  49
240,  50,  53,  46
241, 103,  98, 100
242, 100,  99, 104
243, 104, 105, 100
244, 105, 103, 100
245,  95,  98,  93
246,  93,  90,  95
247,  95,  90,  94
248,  94,  99,  95
249,  99, 100,  95
250,  95, 100,  98
*NSET, NAME=FIXED
  1,   2,   3,   4,   5, 